<?xml version="1.0" encoding="utf-8"?>
<!-- Generator: Adobe Illustrator 22.0.0, SVG Export Plug-In . SVG Version: 6.00 Build 0)  -->
<svg version="1.1" id="Layer_1" xmlns="http://www.w3.org/2000/svg" xmlns:xlink="http://www.w3.org/1999/xlink" x="0px" y="0px"
	 viewBox="0 0 63.1 72.9" style="enable-background:new 0 0 63.1 72.9;" xml:space="preserve">
<style type="text/css">
	.st0{fill:#CCE3A7;}
</style>
<g>
	<path class="st0" d="M63.1,36.4L0,0v72.9L63.1,36.4z"/>
</g>
</svg>
